@startuml

title __MODEL's Class Diagram__\n

  namespace fr.cnam.foad.nfa035.exam {
    namespace model {
      class fr.cnam.foad.nfa035.exam.model.MyWhiteExam {
          - codeUe : String
          - date : Date
          - ecole : String
          - intitule : String
          - region : String
          + MyWhiteExam()
          + MyWhiteExam()
          + equals()
          + getCodeUe()
          + getDate()
          + getEcole()
          + getIntitule()
          + getRegion()
          + setCodeUe()
          + setDate()
          + setEcole()
          + setIntitule()
          + setRegion()
          + toString()
      }
    }
  }
  



right footer


PlantUML diagram generated by SketchIt! (https://bitbucket.org/pmesmeur/sketch.it)
For more information about this tool, please contact philippe.mesmeur@gmail.com
endfooter

@enduml
